1Semestre/Spatti/tutorial/simulation/qsim/portaAnd.msim.vcd
$comment
	File created using the following command:
		vcd file portaAnd.msim.vcd -direction
$end
$date
	Mon Mar 23 22:56:56 2020
$end
$version
	ModelSim Version 10.3c
$end
$timescale
	1ps
$end

$scope module portaAnd_vlg_vec_tst $end
$var reg 1 ! pin_name1 $end
$var reg 1 " pin_name2 $end
$var wire 1 # pin_name3 $end
$var wire 1 $ sampler $end

$scope module i1 $end
$var wire 1 % gnd $end
$var wire 1 & vcc $end
$var wire 1 ' unknown $end
$var tri1 1 ( devclrn $end
$var tri1 1 ) devpor $end
$var tri1 1 * devoe $end
$var wire 1 + ~QUARTUS_CREATED_GND~I_combout $end
$var wire 1 , pin_name1~input_o $end
$var wire 1 - pin_name2~input_o $end
$var wire 1 . inst~combout $end
$upscope $end
$upscope $end
$enddefinitions $end
#0
$dumpvars
0!
0"
0#
x$
0%
1&
x'
1(
1)
1*
0+
0,
0-
0.
$end
#500000
1!
1,
0$
#1000000
1"
0!
1-
0,
1$
#1500000
1!
1,
0$
1.
1#
#2000000
0"
0!
0-
0,
1$
0.
0#
#2500000
1!
1,
0$
#3000000
1"
0!
1-
0,
1$
#3500000
1!
1,
0$
1.
1#
#4000000
0"
0!
0-
0,
1$
0.
0#
#4500000
1!
1,
0$
#5000000
1"
0!
1-
0,
1$
#5500000
1!
1,
0$
1.
1#
#6000000
0"
0!
0-
0,
1$
0.
0#
#6500000
1!
1,
0$
#7000000
1"
0!
1-
0,
1$
#7500000
1!
1,
0$
1.
1#
#8000000
0"
0!
0-
0,
1$
0.
0#
#8500000
1!
1,
0$
#9000000
1"
0!
1-
0,
1$
#9500000
1!
1,
0$
1.
1#
#10000000
0"
0!
0-
0,
1$
0.
0#
#10500000
1!
1,
0$
#11000000
1"
0!
1-
0,
1$
#11500000
1!
1,
0$
1.
1#
#12000000
0"
0!
0-
0,
1$
0.
0#
#12500000
1!
1,
0$
#13000000
1"
0!
1-
0,
1$
#13500000
1!
1,
0$
1.
1#
#14000000
0"
0!
0-
0,
1$
0.
0#
#14500000
1!
1,
0$
#15000000
1"
0!
1-
0,
1$
#15500000
1!
1,
0$
1.
1#
